\relax 
\providecommand\hyper@newdestlabel[2]{}
\providecommand\HyperFirstAtBeginDocument{\AtBeginDocument}
\HyperFirstAtBeginDocument{\ifx\hyper@anchor\@undefined
\global\let\oldcontentsline\contentsline
\gdef\contentsline#1#2#3#4{\oldcontentsline{#1}{#2}{#3}}
\global\let\oldnewlabel\newlabel
\gdef\newlabel#1#2{\newlabelxx{#1}#2}
\gdef\newlabelxx#1#2#3#4#5#6{\oldnewlabel{#1}{{#2}{#3}}}
\AtEndDocument{\ifx\hyper@anchor\@undefined
\let\contentsline\oldcontentsline
\let\newlabel\oldnewlabel
\fi}
\fi}
\global\let\hyper@last\relax 
\gdef\HyperFirstAtBeginDocument#1{#1}
\providecommand\HyField@AuxAddToFields[1]{}
\providecommand\HyField@AuxAddToCoFields[2]{}
\@nameuse{bbl@beforestart}
\catcode `:\active 
\catcode `;\active 
\catcode `!\active 
\catcode `?\active 
\babel@aux{french}{}
\@writefile{toc}{\contentsline {paragraph}{}{1}{section*.1}\protected@file@percent }
\@writefile{toc}{\contentsline {paragraph}{}{1}{section*.2}\protected@file@percent }
\@writefile{toc}{\contentsline {paragraph}{}{1}{section*.3}\protected@file@percent }
\@writefile{toc}{\contentsline {paragraph}{}{3}{section*.5}\protected@file@percent }
\@writefile{toc}{\contentsline {paragraph}{}{3}{section*.6}\protected@file@percent }
\@writefile{toc}{\contentsline {section}{\numberline {1}Introduction}{4}{section.1}\protected@file@percent }
\@writefile{toc}{\contentsline {paragraph}{}{4}{section*.7}\protected@file@percent }
\@writefile{toc}{\contentsline {section}{\numberline {2}Manipulations XML}{5}{section.2}\protected@file@percent }
\@writefile{toc}{\contentsline {subsection}{\numberline {2.1}Général}{5}{subsection.2.1}\protected@file@percent }
\@writefile{toc}{\contentsline {paragraph}{}{5}{section*.8}\protected@file@percent }
\@writefile{toc}{\contentsline {paragraph}{}{5}{section*.9}\protected@file@percent }
\@writefile{toc}{\contentsline {paragraph}{}{5}{section*.10}\protected@file@percent }
\@writefile{toc}{\contentsline {paragraph}{}{5}{section*.11}\protected@file@percent }
\@writefile{toc}{\contentsline {paragraph}{}{6}{section*.12}\protected@file@percent }
\@writefile{toc}{\contentsline {paragraph}{}{6}{section*.13}\protected@file@percent }
\@writefile{toc}{\contentsline {subsection}{\numberline {2.2}Outils de développement}{6}{subsection.2.2}\protected@file@percent }
\@writefile{toc}{\contentsline {paragraph}{}{6}{section*.14}\protected@file@percent }
\@writefile{toc}{\contentsline {paragraph}{}{6}{section*.15}\protected@file@percent }
\@writefile{toc}{\contentsline {paragraph}{}{6}{section*.16}\protected@file@percent }
\@writefile{toc}{\contentsline {subsection}{\numberline {2.3}Fonctionnalités implémentées}{7}{subsection.2.3}\protected@file@percent }
\@writefile{lof}{\contentsline {figure}{\numberline {1}{\ignorespaces Diagramme de cas d'utilisation de l'application}}{7}{figure.1}\protected@file@percent }
\@writefile{lof}{\contentsline {figure}{\numberline {2}{\ignorespaces Capture d'écran de la page de recherche par journée}}{7}{figure.2}\protected@file@percent }
\@writefile{toc}{\contentsline {paragraph}{}{7}{section*.17}\protected@file@percent }
\@writefile{lof}{\contentsline {figure}{\numberline {3}{\ignorespaces Capture d'écran de la page de recherche par journée}}{8}{figure.3}\protected@file@percent }
\@writefile{toc}{\contentsline {paragraph}{}{8}{section*.18}\protected@file@percent }
\@writefile{toc}{\contentsline {paragraph}{}{8}{section*.19}\protected@file@percent }
\@writefile{lof}{\contentsline {figure}{\numberline {4}{\ignorespaces Capture d'écran d'une page de détail après une recherche}}{9}{figure.4}\protected@file@percent }
\@writefile{toc}{\contentsline {paragraph}{}{9}{section*.20}\protected@file@percent }
\@writefile{toc}{\contentsline {subsection}{\numberline {2.4}Analyse critique}{9}{subsection.2.4}\protected@file@percent }
\@writefile{toc}{\contentsline {paragraph}{}{9}{section*.21}\protected@file@percent }
\@writefile{toc}{\contentsline {paragraph}{}{9}{section*.22}\protected@file@percent }
\@writefile{toc}{\contentsline {paragraph}{}{9}{section*.23}\protected@file@percent }
\@writefile{toc}{\contentsline {paragraph}{}{9}{section*.24}\protected@file@percent }
\@writefile{toc}{\contentsline {paragraph}{}{10}{section*.25}\protected@file@percent }
\@writefile{toc}{\contentsline {subsection}{\numberline {2.5}Reproductibilité}{10}{subsection.2.5}\protected@file@percent }
\@writefile{toc}{\contentsline {paragraph}{}{10}{section*.26}\protected@file@percent }
\@writefile{toc}{\contentsline {paragraph}{}{10}{section*.27}\protected@file@percent }
\@writefile{toc}{\contentsline {section}{\numberline {3}Annotations manuelles du corpus:}{11}{section.3}\protected@file@percent }
\@writefile{toc}{\contentsline {subsection}{\numberline {3.1}Introduction au travail d'annotateur:}{11}{subsection.3.1}\protected@file@percent }
\@writefile{toc}{\contentsline {paragraph}{}{11}{section*.28}\protected@file@percent }
\@writefile{toc}{\contentsline {paragraph}{}{11}{section*.29}\protected@file@percent }
\@writefile{toc}{\contentsline {paragraph}{}{11}{section*.30}\protected@file@percent }
\@writefile{toc}{\contentsline {paragraph}{}{11}{section*.31}\protected@file@percent }
\@writefile{toc}{\contentsline {subsection}{\numberline {3.2}Études des outils existant:}{11}{subsection.3.2}\protected@file@percent }
\@writefile{toc}{\contentsline {paragraph}{}{11}{section*.32}\protected@file@percent }
\@writefile{toc}{\contentsline {subsection}{\numberline {3.3}Annotation de la 26ème journée des minutes du procès de Nuremberg:}{12}{subsection.3.3}\protected@file@percent }
\@writefile{toc}{\contentsline {paragraph}{}{12}{section*.33}\protected@file@percent }
\@writefile{toc}{\contentsline {paragraph}{Consignes d'annotations:}{12}{section*.34}\protected@file@percent }
\@writefile{toc}{\contentsline {paragraph}{}{12}{section*.35}\protected@file@percent }
\@writefile{toc}{\contentsline {paragraph}{}{12}{section*.36}\protected@file@percent }
\@writefile{toc}{\contentsline {paragraph}{}{12}{section*.37}\protected@file@percent }
\@writefile{toc}{\contentsline {paragraph}{}{13}{section*.38}\protected@file@percent }
\@writefile{lof}{\contentsline {figure}{\numberline {5}{\ignorespaces Interface GLOZZ}}{13}{figure.5}\protected@file@percent }
\@writefile{toc}{\contentsline {paragraph}{}{13}{section*.39}\protected@file@percent }
\@writefile{toc}{\contentsline {paragraph}{}{13}{section*.40}\protected@file@percent }
\@writefile{toc}{\contentsline {section}{\numberline {4}Mesures d'accord}{14}{section.4}\protected@file@percent }
\@writefile{toc}{\contentsline {paragraph}{}{14}{section*.41}\protected@file@percent }
\@writefile{toc}{\contentsline {subsection}{\numberline {4.1}État de l'art :}{14}{subsection.4.1}\protected@file@percent }
\@writefile{toc}{\contentsline {subsubsection}{\numberline {4.1.1}Mesure d'accord et correction par la chance:}{14}{subsubsection.4.1.1}\protected@file@percent }
\@writefile{toc}{\contentsline {paragraph}{}{14}{section*.42}\protected@file@percent }
\@writefile{toc}{\contentsline {paragraph}{}{14}{section*.43}\protected@file@percent }
\@writefile{toc}{\contentsline {subsubsection}{\numberline {4.1.2}Mesure d'accord adapté à "l'Unitizing":}{14}{subsubsection.4.1.2}\protected@file@percent }
\@writefile{toc}{\contentsline {paragraph}{}{14}{section*.44}\protected@file@percent }
\@writefile{lof}{\contentsline {figure}{\numberline {6}{\ignorespaces Illustration des différents types de désaccord en Unitizing}}{14}{figure.6}\protected@file@percent }
\@writefile{toc}{\contentsline {paragraph}{}{15}{section*.45}\protected@file@percent }
\@writefile{toc}{\contentsline {paragraph}{}{15}{section*.46}\protected@file@percent }
\@writefile{lof}{\contentsline {figure}{\numberline {7}{\ignorespaces Schéma récapitulatif de la mesure $\gamma $ extrait du cours de M.Mathet.}}{15}{figure.7}\protected@file@percent }
\@writefile{toc}{\contentsline {subsection}{\numberline {4.2}Mesure de l'accord sur notre campagne d'annotation:}{15}{subsection.4.2}\protected@file@percent }
\@writefile{toc}{\contentsline {subsubsection}{\numberline {4.2.1}Accord première passe d'annotation.}{15}{subsubsection.4.2.1}\protected@file@percent }
\@writefile{toc}{\contentsline {paragraph}{}{15}{section*.47}\protected@file@percent }
\@writefile{toc}{\contentsline {paragraph}{}{15}{section*.48}\protected@file@percent }
\@writefile{toc}{\contentsline {paragraph}{Analyse des résultats : }{16}{section*.49}\protected@file@percent }
\@writefile{toc}{\contentsline {paragraph}{}{16}{section*.50}\protected@file@percent }
\@writefile{toc}{\contentsline {subsubsection}{\numberline {4.2.2}Accord seconde passe d'annotation.}{16}{subsubsection.4.2.2}\protected@file@percent }
\@writefile{toc}{\contentsline {paragraph}{}{16}{section*.51}\protected@file@percent }
\@writefile{toc}{\contentsline {paragraph}{}{16}{section*.52}\protected@file@percent }
\@writefile{toc}{\contentsline {paragraph}{Analyse des résultats : }{17}{section*.53}\protected@file@percent }
\@writefile{toc}{\contentsline {paragraph}{}{17}{section*.54}\protected@file@percent }
\@writefile{toc}{\contentsline {subsection}{\numberline {4.3}Travaux/expériences annexes réalisés sur la mesure d'accord :}{18}{subsection.4.3}\protected@file@percent }
\@writefile{toc}{\contentsline {paragraph}{}{18}{section*.55}\protected@file@percent }
\@writefile{toc}{\contentsline {subsubsection}{\numberline {4.3.1}Prise en compte des valeurs manquantes.}{18}{subsubsection.4.3.1}\protected@file@percent }
\@writefile{toc}{\contentsline {paragraph}{}{18}{section*.56}\protected@file@percent }
\@writefile{toc}{\contentsline {paragraph}{}{18}{section*.57}\protected@file@percent }
\@writefile{toc}{\contentsline {paragraph}{}{18}{section*.58}\protected@file@percent }
\@writefile{toc}{\contentsline {subsubsection}{\numberline {4.3.2}Visualisation et simulation de la chance pour l'unitizing.}{19}{subsubsection.4.3.2}\protected@file@percent }
\@writefile{toc}{\contentsline {paragraph}{}{19}{section*.59}\protected@file@percent }
\@writefile{toc}{\contentsline {paragraph}{}{19}{section*.60}\protected@file@percent }
\@writefile{toc}{\contentsline {paragraph}{}{19}{section*.61}\protected@file@percent }
\@writefile{toc}{\contentsline {paragraph}{}{19}{section*.62}\protected@file@percent }
\@writefile{toc}{\contentsline {paragraph}{}{19}{section*.63}\protected@file@percent }
\@writefile{toc}{\contentsline {paragraph}{}{20}{section*.64}\protected@file@percent }
\@writefile{toc}{\contentsline {paragraph}{Développement: }{20}{section*.65}\protected@file@percent }
\@writefile{lof}{\contentsline {figure}{\numberline {8}{\ignorespaces Capture d'écran de notre application après chargement des fichiers \textbf  {.aa} et \textbf  {.ac}.}}{21}{figure.8}\protected@file@percent }
\@writefile{toc}{\contentsline {paragraph}{}{21}{section*.66}\protected@file@percent }
\@writefile{toc}{\contentsline {paragraph}{}{21}{section*.67}\protected@file@percent }
\@writefile{lof}{\contentsline {figure}{\numberline {9}{\ignorespaces Capture d'écran de notre application après avoir cliqué sur le bouton "Mélanger".}}{22}{figure.9}\protected@file@percent }
\@writefile{toc}{\contentsline {paragraph}{}{22}{section*.68}\protected@file@percent }
\@writefile{toc}{\contentsline {paragraph}{}{22}{section*.69}\protected@file@percent }
\@writefile{toc}{\contentsline {paragraph}{Améliorations possibles de l'application}{22}{section*.70}\protected@file@percent }
\@writefile{toc}{\contentsline {section}{\numberline {5}Traitement automatique des langues - TAL}{23}{section.5}\protected@file@percent }
\@writefile{toc}{\contentsline {paragraph}{}{23}{section*.71}\protected@file@percent }
\@writefile{toc}{\contentsline {subsection}{\numberline {5.1}État de l'art}{23}{subsection.5.1}\protected@file@percent }
\@writefile{toc}{\contentsline {paragraph}{}{23}{section*.72}\protected@file@percent }
\@writefile{toc}{\contentsline {paragraph}{}{23}{section*.73}\protected@file@percent }
\@writefile{toc}{\contentsline {subsection}{\numberline {5.2}Expérimentation}{23}{subsection.5.2}\protected@file@percent }
\@writefile{toc}{\contentsline {paragraph}{}{23}{section*.74}\protected@file@percent }
\@writefile{toc}{\contentsline {paragraph}{}{23}{section*.75}\protected@file@percent }
\@writefile{toc}{\contentsline {paragraph}{}{23}{section*.76}\protected@file@percent }
\@writefile{toc}{\contentsline {paragraph}{}{23}{section*.77}\protected@file@percent }
\@writefile{toc}{\contentsline {paragraph}{}{24}{section*.78}\protected@file@percent }
\@writefile{toc}{\contentsline {paragraph}{}{24}{section*.79}\protected@file@percent }
\@writefile{toc}{\contentsline {paragraph}{}{24}{section*.80}\protected@file@percent }
\@writefile{toc}{\contentsline {paragraph}{}{24}{section*.81}\protected@file@percent }
\@writefile{toc}{\contentsline {paragraph}{}{24}{section*.82}\protected@file@percent }
\@writefile{toc}{\contentsline {paragraph}{}{24}{section*.83}\protected@file@percent }
\@writefile{toc}{\contentsline {paragraph}{}{25}{section*.84}\protected@file@percent }
\@writefile{toc}{\contentsline {paragraph}{}{25}{section*.85}\protected@file@percent }
\@writefile{toc}{\contentsline {paragraph}{}{25}{section*.86}\protected@file@percent }
\@writefile{toc}{\contentsline {paragraph}{}{25}{section*.87}\protected@file@percent }
\@writefile{toc}{\contentsline {paragraph}{}{25}{section*.88}\protected@file@percent }
\@writefile{toc}{\contentsline {paragraph}{}{25}{section*.89}\protected@file@percent }
\@writefile{toc}{\contentsline {paragraph}{}{25}{section*.90}\protected@file@percent }
\@writefile{toc}{\contentsline {paragraph}{}{25}{section*.91}\protected@file@percent }
\@writefile{toc}{\contentsline {paragraph}{}{25}{section*.92}\protected@file@percent }
\@writefile{toc}{\contentsline {paragraph}{}{25}{section*.93}\protected@file@percent }
\@writefile{toc}{\contentsline {paragraph}{}{25}{section*.94}\protected@file@percent }
\@writefile{toc}{\contentsline {paragraph}{}{25}{section*.95}\protected@file@percent }
\@writefile{toc}{\contentsline {paragraph}{}{25}{section*.96}\protected@file@percent }
\@writefile{toc}{\contentsline {paragraph}{}{26}{section*.97}\protected@file@percent }
\@writefile{toc}{\contentsline {paragraph}{}{26}{section*.98}\protected@file@percent }
\@writefile{lof}{\contentsline {figure}{\numberline {10}{\ignorespaces Capture d'écran de notre application après traitement automatique}}{26}{figure.10}\protected@file@percent }
\@writefile{toc}{\contentsline {paragraph}{}{26}{section*.99}\protected@file@percent }
\@writefile{toc}{\contentsline {paragraph}{}{26}{section*.100}\protected@file@percent }
\@writefile{toc}{\contentsline {paragraph}{}{27}{section*.101}\protected@file@percent }
\@writefile{toc}{\contentsline {paragraph}{}{27}{section*.102}\protected@file@percent }
\@writefile{toc}{\contentsline {paragraph}{}{27}{section*.103}\protected@file@percent }
\@writefile{toc}{\contentsline {section}{\numberline {6}Modélisation Sémantique de la Temporalité}{28}{section.6}\protected@file@percent }
\@writefile{lof}{\contentsline {figure}{\numberline {11}{\ignorespaces Récapitulatif sur la représentation du temps:}}{28}{figure.11}\protected@file@percent }
\@writefile{toc}{\contentsline {paragraph}{}{29}{section*.104}\protected@file@percent }
\@writefile{toc}{\contentsline {paragraph}{}{29}{section*.105}\protected@file@percent }
\@writefile{toc}{\contentsline {paragraph}{}{29}{section*.106}\protected@file@percent }
\@writefile{lof}{\contentsline {figure}{\numberline {12}{\ignorespaces Texte à traiter dans le cadre de notre expérimentation personnel de Chronogrammes:}}{30}{figure.12}\protected@file@percent }
\@writefile{toc}{\contentsline {paragraph}{Étape 1 - Création des axes:}{30}{section*.107}\protected@file@percent }
\@writefile{toc}{\contentsline {paragraph}{}{30}{section*.108}\protected@file@percent }
\@writefile{toc}{\contentsline {paragraph}{Étape 2 - Création des intervalles:}{30}{section*.109}\protected@file@percent }
\@writefile{toc}{\contentsline {paragraph}{}{30}{section*.110}\protected@file@percent }
\@writefile{toc}{\contentsline {paragraph}{}{30}{section*.111}\protected@file@percent }
\@writefile{toc}{\contentsline {paragraph}{Étape 3 - Règles sur les temps conjugués:}{30}{section*.112}\protected@file@percent }
\@writefile{toc}{\contentsline {paragraph}{}{30}{section*.113}\protected@file@percent }
\@writefile{toc}{\contentsline {paragraph}{Étape 4 - Règles inter-procès:}{31}{section*.114}\protected@file@percent }
\@writefile{toc}{\contentsline {paragraph}{}{31}{section*.115}\protected@file@percent }
\@writefile{toc}{\contentsline {paragraph}{Étape 5 - Règles pragmatiques:}{32}{section*.116}\protected@file@percent }
\@writefile{toc}{\contentsline {paragraph}{}{32}{section*.117}\protected@file@percent }
\@writefile{lof}{\contentsline {figure}{\numberline {13}{\ignorespaces Résultat obtenu sur Chronogrammes:}}{33}{figure.13}\protected@file@percent }
\@writefile{toc}{\contentsline {section}{\numberline {7}Mesure de validité}{34}{section.7}\protected@file@percent }
\@writefile{toc}{\contentsline {subsection}{\numberline {7.1}Mesurer la validité}{34}{subsection.7.1}\protected@file@percent }
\@writefile{toc}{\contentsline {paragraph}{}{34}{section*.118}\protected@file@percent }
\@writefile{toc}{\contentsline {subsection}{\numberline {7.2}Stratégies de mesure}{34}{subsection.7.2}\protected@file@percent }
\@writefile{toc}{\contentsline {paragraph}{}{34}{section*.119}\protected@file@percent }
\@writefile{toc}{\contentsline {subsection}{\numberline {7.3}Application et algorithmes}{34}{subsection.7.3}\protected@file@percent }
\@writefile{toc}{\contentsline {paragraph}{}{34}{section*.120}\protected@file@percent }
\@writefile{toc}{\contentsline {paragraph}{}{34}{section*.121}\protected@file@percent }
\@writefile{lof}{\contentsline {figure}{\numberline {14}{\ignorespaces Capture d'écran de l'application}}{36}{figure.14}\protected@file@percent }
\@writefile{toc}{\contentsline {paragraph}{}{36}{figure.14}\protected@file@percent }
\@writefile{toc}{\contentsline {subsection}{\numberline {7.4}Présentation des résultats}{36}{subsection.7.4}\protected@file@percent }
\@writefile{toc}{\contentsline {subsubsection}{\numberline {7.4.1}Résultat de la version basique stricte}{36}{subsubsection.7.4.1}\protected@file@percent }
\@writefile{toc}{\contentsline {subsubsection}{\numberline {7.4.2}Résultat de la version avec tolérance (minimum la moitié de l'intersection}{36}{subsubsection.7.4.2}\protected@file@percent }
\@writefile{toc}{\contentsline {subsubsection}{\numberline {7.4.3}Résultat avec tolérance sur la catégorie}{37}{subsubsection.7.4.3}\protected@file@percent }
\@writefile{toc}{\contentsline {subsection}{\numberline {7.5}Analyse critique}{37}{subsection.7.5}\protected@file@percent }
\@writefile{lof}{\contentsline {figure}{\numberline {15}{\ignorespaces Diagramme représentant l'évolution de la F-Mesure}}{37}{figure.15}\protected@file@percent }
\@writefile{toc}{\contentsline {paragraph}{}{37}{figure.15}\protected@file@percent }
\@writefile{toc}{\contentsline {paragraph}{}{37}{section*.124}\protected@file@percent }
\@writefile{toc}{\contentsline {paragraph}{}{37}{section*.125}\protected@file@percent }
\@writefile{toc}{\contentsline {paragraph}{}{38}{section*.126}\protected@file@percent }
\@writefile{toc}{\contentsline {paragraph}{}{38}{section*.127}\protected@file@percent }
\@writefile{toc}{\contentsline {paragraph}{}{38}{section*.128}\protected@file@percent }
\@writefile{toc}{\contentsline {section}{\numberline {8}Conclusion}{39}{section.8}\protected@file@percent }
\@writefile{toc}{\contentsline {paragraph}{}{39}{section*.129}\protected@file@percent }
\bibcite{cle}{Support de Cours}
\bibcite{lam1}{Support de Cours}
\bibcite{lam1}{Support de Cours}
\bibcite{lam1}{Support de Cours}
\bibcite{lam1}{Support de Cours}
\bibcite{lam1}{Support de Cours}
\bibcite{lam1}{Documentation}
\bibcite{laml}{Documentation}
\bibcite{laml}{Documentation}
\bibcite{laml}{Documentation}
\bibcite{laml}{Vidéo de démonstrations}
\bibcite{laml}{Vidéo de démonstrations}
\bibcite{laml}{Vidéo de démonstrations}
\bibcite{laml}{Vidéo de démonstrations}
