\BOOKMARK [1][-]{section.1}{Introduction}{}% 1
\BOOKMARK [1][-]{section.2}{Manipulations XML}{}% 2
\BOOKMARK [2][-]{subsection.2.1}{G\351n\351ral}{section.2}% 3
\BOOKMARK [2][-]{subsection.2.2}{Outils de d\351veloppement}{section.2}% 4
\BOOKMARK [2][-]{subsection.2.3}{Fonctionnalit\351s impl\351ment\351es}{section.2}% 5
\BOOKMARK [2][-]{subsection.2.4}{Analyse critique}{section.2}% 6
\BOOKMARK [2][-]{subsection.2.5}{Reproductibilit\351}{section.2}% 7
\BOOKMARK [1][-]{section.3}{Annotations manuelles du corpus:}{}% 8
\BOOKMARK [2][-]{subsection.3.1}{Introduction au travail d'annotateur:}{section.3}% 9
\BOOKMARK [2][-]{subsection.3.2}{\311tudes des outils existant:}{section.3}% 10
\BOOKMARK [2][-]{subsection.3.3}{Annotation de la 26\350me journ\351e des minutes du proc\350s de Nuremberg:}{section.3}% 11
\BOOKMARK [1][-]{section.4}{Mesures d'accord}{}% 12
\BOOKMARK [2][-]{subsection.4.1}{\311tat de l'art :}{section.4}% 13
\BOOKMARK [3][-]{subsubsection.4.1.1}{Mesure d'accord et correction par la chance:}{subsection.4.1}% 14
\BOOKMARK [3][-]{subsubsection.4.1.2}{Mesure d'accord adapt\351 \340 "l'Unitizing":}{subsection.4.1}% 15
\BOOKMARK [2][-]{subsection.4.2}{Mesure de l'accord sur notre campagne d'annotation:}{section.4}% 16
\BOOKMARK [3][-]{subsubsection.4.2.1}{Accord premi\350re passe d'annotation.}{subsection.4.2}% 17
\BOOKMARK [3][-]{subsubsection.4.2.2}{Accord seconde passe d'annotation.}{subsection.4.2}% 18
\BOOKMARK [2][-]{subsection.4.3}{Travaux/exp\351riences annexes r\351alis\351s sur la mesure d'accord :}{section.4}% 19
\BOOKMARK [3][-]{subsubsection.4.3.1}{Prise en compte des valeurs manquantes.}{subsection.4.3}% 20
\BOOKMARK [3][-]{subsubsection.4.3.2}{Visualisation et simulation de la chance pour l'unitizing.}{subsection.4.3}% 21
\BOOKMARK [1][-]{section.5}{Traitement automatique des langues - TAL}{}% 22
\BOOKMARK [2][-]{subsection.5.1}{\311tat de l'art}{section.5}% 23
\BOOKMARK [2][-]{subsection.5.2}{Exp\351rimentation}{section.5}% 24
\BOOKMARK [1][-]{section.6}{Mod\351lisation S\351mantique de la Temporalit\351}{}% 25
\BOOKMARK [1][-]{section.7}{Mesure de validit\351}{}% 26
\BOOKMARK [2][-]{subsection.7.1}{Mesurer la validit\351}{section.7}% 27
\BOOKMARK [2][-]{subsection.7.2}{Strat\351gies de mesure}{section.7}% 28
\BOOKMARK [2][-]{subsection.7.3}{Application et algorithmes}{section.7}% 29
\BOOKMARK [2][-]{subsection.7.4}{Pr\351sentation des r\351sultats}{section.7}% 30
\BOOKMARK [3][-]{subsubsection.7.4.1}{R\351sultat de la version basique stricte}{subsection.7.4}% 31
\BOOKMARK [3][-]{subsubsection.7.4.2}{R\351sultat de la version avec tol\351rance \(minimum la moiti\351 de l'intersection}{subsection.7.4}% 32
\BOOKMARK [3][-]{subsubsection.7.4.3}{R\351sultat avec tol\351rance sur la cat\351gorie}{subsection.7.4}% 33
\BOOKMARK [2][-]{subsection.7.5}{Analyse critique}{section.7}% 34
\BOOKMARK [1][-]{section.8}{Conclusion}{}% 35
